<?xml version="1.0" standalone="no"?>
<!DOCTYPE svg PUBLIC "-//W3C//DTD SVG 20010904//EN"
 "http://www.w3.org/TR/2001/REC-SVG-20010904/DTD/svg10.dtd">
<svg version="1.0" xmlns="http://www.w3.org/2000/svg"
 width="512.000000pt" height="512.000000pt" viewBox="0 0 512.000000 512.000000"
 preserveAspectRatio="xMidYMid meet">
<g transform="translate(0.000000,512.000000) scale(0.100000,-0.100000)"
fill="#e5b000" stroke="none">
<path d="M2447 5025 c-87 -33 -160 -108 -194 -201 l-19 -49 -729 -347 -730
-347 -222 0 c-264 -1 -301 -10 -383 -91 -62 -63 -90 -134 -90 -230 0 -130 64
-236 175 -290 49 -25 55 -25 338 -28 l287 -3 0 -1229 0 -1229 62 26 c139 56
248 -1 248 -130 0 -44 -19 -82 -77 -151 -13 -16 -23 -30 -21 -31 5 -5 1442
-618 1458 -622 12 -3 1461 607 1477 621 2 2 -17 29 -42 61 -52 66 -59 88 -52
152 4 35 13 54 40 81 49 49 116 55 205 19 l62 -26 0 1230 0 1229 275 0 c254 0
278 2 330 21 207 77 264 369 105 529 -82 81 -120 90 -379 90 l-218 0 -733 347
c-716 339 -733 348 -747 383 -39 101 -92 163 -171 202 -59 29 -195 36 -255 13z
m191 -175 c130 -79 74 -280 -78 -280 -85 0 -150 65 -150 150 0 54 27 102 72
130 20 12 51 20 78 20 27 0 58 -8 78 -20z m-347 -310 c63 -93 154 -140 269
-140 116 0 206 47 269 140 24 35 39 49 50 45 9 -3 251 -117 539 -253 l523
-247 -691 -3 c-379 -1 -1000 -1 -1380 0 l-689 3 532 252 c293 139 535 253 538
253 3 0 21 -23 40 -50z m-1731 -781 l0 -162 -99 5 c-112 5 -151 22 -188 78
-44 63 -23 163 42 206 36 23 78 32 168 33 l77 1 0 -161z m320 1 l0 -160 -80 0
-80 0 0 160 0 160 80 0 80 0 0 -160z m830 157 c0 -1 -151 -153 -335 -337
l-335 -335 0 338 0 337 335 0 c184 0 335 -1 335 -3z m1605 -157 l160 -160
-915 0 -915 0 160 160 160 160 595 0 595 0 160 -160z m765 -175 c0 -184 -1
-335 -3 -335 -1 0 -153 151 -337 335 l-335 335 338 0 337 0 0 -335z m320 175
l0 -160 -80 0 -80 0 0 160 0 160 80 0 80 0 0 -160z m391 134 c50 -30 79 -78
79 -134 0 -56 -29 -104 -79 -134 -25 -14 -58 -20 -132 -24 l-99 -5 0 163 0
163 99 -5 c74 -4 107 -10 132 -24z m-2815 -509 c-116 -99 -230 -279 -271 -430
-26 -94 -31 -313 -10 -416 33 -164 121 -327 241 -447 l64 -64 0 -444 c0 -244
-4 -444 -8 -444 -4 0 -111 44 -237 99 l-230 98 -3 1052 -2 1051 261 0 260 0
-65 -55z m1622 -996 l-3 -1052 -230 -98 c-126 -55 -233 -99 -237 -99 -4 0 -8
200 -8 444 l0 444 64 64 c118 118 208 282 240 440 20 97 20 280 1 373 -40 186
-148 369 -288 486 l-59 49 261 0 261 0 -2 -1051z m-1118 966 c0 -73 0 -75 -27
-81 -230 -50 -397 -217 -447 -446 -6 -28 -8 -28 -81 -28 -41 0 -75 4 -75 8 0
5 9 43 20 86 63 246 267 451 512 516 40 10 79 19 86 19 8 1 12 -20 12 -74z
m254 55 c248 -63 453 -268 516 -516 11 -43 20 -81 20 -86 0 -4 -34 -8 -75 -8
-73 0 -75 0 -81 28 -50 229 -217 396 -446 446 -28 6 -28 8 -28 81 0 41 4 75 8
75 5 0 43 -9 86 -20z m-772 -2447 l598 -256 597 256 598 256 3 1048 2 1048
160 -160 160 -160 0 -896 0 -896 -54 -6 c-172 -18 -289 -179 -264 -367 3 -30
4 -58 0 -61 -13 -12 -1187 -509 -1202 -509 -14 0 -1188 497 -1202 509 -4 3 -3
31 0 61 25 188 -92 349 -264 367 l-54 6 0 896 0 896 158 158 157 157 5 -1046
5 -1045 597 -256z m761 2114 c74 -34 160 -119 195 -194 24 -52 27 -70 27 -163
0 -93 -3 -111 -27 -163 -35 -74 -121 -160 -195 -195 -52 -24 -70 -27 -163 -27
-93 0 -111 3 -163 27 -74 35 -160 121 -195 195 -24 52 -27 70 -27 163 0 93 3
111 26 160 48 101 130 176 232 212 78 28 213 21 290 -15z m-717 -464 c50 -230
217 -397 447 -447 27 -6 27 -8 27 -81 0 -41 -4 -75 -8 -75 -5 0 -43 9 -86 20
-248 63 -453 268 -516 516 -11 43 -20 81 -20 86 0 4 34 8 75 8 73 0 75 0 81
-27z m1264 19 c0 -5 -9 -43 -20 -86 -63 -248 -268 -453 -516 -516 -43 -11 -81
-20 -86 -20 -4 0 -8 34 -8 75 0 73 0 75 28 81 229 50 396 217 446 447 6 27 8
27 81 27 41 0 75 -4 75 -8z m-975 -755 c44 -13 104 -28 133 -32 l52 -7 0 -455
c0 -250 -4 -453 -9 -451 -4 2 -76 32 -160 68 l-151 64 0 433 0 434 28 -15 c15
-7 63 -25 107 -39z m665 -380 l0 -433 -151 -64 c-84 -36 -156 -66 -160 -68 -5
-2 -9 201 -9 451 l0 455 53 7 c54 7 221 58 247 75 8 5 16 10 18 10 1 0 2 -195
2 -433z"/>
<path d="M2455 2941 c-87 -40 -135 -120 -135 -223 1 -142 97 -238 240 -238
144 0 240 96 240 240 0 104 -53 187 -142 224 -52 22 -153 20 -203 -3z m155
-171 c11 -11 20 -33 20 -50 0 -17 -9 -39 -20 -50 -11 -11 -33 -20 -50 -20 -17
0 -39 9 -50 20 -11 11 -20 33 -20 50 0 17 9 39 20 50 11 11 33 20 50 20 17 0
39 -9 50 -20z"/>
</g>
</svg>
